from libcpp.map cimport map
from libcpp.pair cimport pair
from libcpp.vector cimport vector
from libcpp.unordered_map cimport unordered_map
from libcpp cimport bool
from libcpp.string cimport string
from cython.operator cimport dereference as deref

cdef extern from "YODA/Config/YodaConfig.h" namespace "YODA":
     string version()


# Import the error handling C++ routine
cdef extern from "errors.hh":
    # Have a look in errors.cpp for implementation specifics
    void yodaerr "translate_yoda_error" ()

ctypedef map[string, string] Annotations
ctypedef double (*dbl_dbl_fptr) (double)


# Math utils {{{
cdef extern from "YODA/Utils/MathUtils.h" namespace "YODA":
    # bool isZero(double a, double tolerance) except +yodaerr
    # bool fuzzyEquals(double a, double b, double tolerance) except +yodaerr
    # bool fuzzyGtrEquals(double a, double b, double tolerance) except +yodaerr
    # bool fuzzyLessEquals(double a, double b, double tolerance) except +yodaerr
    vector[double] linspace(size_t nbins, double start, double end) except +yodaerr
    vector[double] logspace(size_t nbins, double start, double end) except +yodaerr
    int index_between(double&, vector[double]& binedges) except +yodaerr
    double effNumEntries(vector[double]& weights) except +yodaerr
    double mean(vector[int]& sample) except +yodaerr
    double mean(vector[double]& sample, vector[double]& weights) except +yodaerr
    double variance(vector[double]& sample, vector[double]& weights) except +yodaerr
    double stdDev(vector[double]& sample, vector[double]& weights) except +yodaerr
    double stdErr(vector[double]& sample, vector[double]& weights) except +yodaerr
    double RMS(vector[double]& sample, vector[double]& weights) except +yodaerr
    double covariance(vector[int]& sample1, vector[int]& sample2) except +yodaerr
    double correlation(vector[int]& sample1, vector[int]& sample2) except +yodaerr
    double naiveChi2(vector[double]&, vector[double]&, vector[double]&, vector[double]&) except +yodaerr
    double naiveChi2reduced(vector[double]&, vector[double]&, vector[double]&, vector[double]&) except +yodaerr
# }}}


# Path utils {{{
cdef extern from "YODA/Utils/Paths.h" namespace "YODA":
    string libPath()
    string dataPath()
    string getLibPath()
    string getDataPath()
    vector[string] getYodaDataPath()

# }}}


# Dbn0D {{{
cdef extern from "YODA/Dbn.h" namespace "YODA":
    cdef cppclass Dbn0D:
        Dbn0D ()
        Dbn0D (Dbn0D)

        void fill(double weight, double fraction) except +yodaerr
        #void set(double numEntries, vector[double]& sumW, vector[double]& sumW2) except +yodaerr
        void set(double numEntries, double sumW, double sumW2) except +yodaerr
        void reset() except +yodaerr
        void scaleW(double) except +yodaerr

        # Raw distribution running sums
        double numEntries() except +yodaerr
        double effNumEntries() except +yodaerr
        double sumW() except +yodaerr
        double sumW2() except +yodaerr
        #double sumW(size_t) except +yodaerr
        #double sumW2(size_t) except +yodaerr

        double errW() except +yodaerr
        double relErrW() except +yodaerr
        #double mean(size_t) except +yodaerr
        #double variance(size_t) except +yodaerr
        #double stdDev(size_t) except +yodaerr
        #double stdErr(size_t) except +yodaerr
        #double RMS(size_t) except +yodaerr

        Dbn0D operator+ (Dbn0D)
        Dbn0D operator- (Dbn0D)
        # TODO: += and -= operators

#}}} Dbn0D


# Dbn1D {{{
cdef extern from "YODA/Dbn.h" namespace "YODA":
    cdef cppclass Dbn1D:
        Dbn1D ()
        Dbn1D (Dbn1D)

        void fill(double val, double weight, double fraction) except +yodaerr
        void set(double numEntries, vector[double]& sumW, vector[double]& sumW2) except +yodaerr
        void reset() except +yodaerr
        void scaleW(double) except +yodaerr
        void scale(size_t, double) except +yodaerr

        # Raw distribution running sums
        double numEntries() except +yodaerr
        double effNumEntries() except +yodaerr
        double sumW() except +yodaerr
        double sumW2() except +yodaerr
        double errW() except +yodaerr
        double relErrW() except +yodaerr
        double mean(size_t) except +yodaerr
        double variance(size_t) except +yodaerr
        double stdDev(size_t) except +yodaerr
        double stdErr(size_t) except +yodaerr
        double RMS(size_t) except +yodaerr

        double sumWX() except +yodaerr
        double sumWX2() except +yodaerr

        void scaleX(double)
        double xMean() except +yodaerr
        double xVariance() except +yodaerr
        double xStdDev() except +yodaerr
        double xStdErr() except +yodaerr
        double xRMS() except +yodaerr

        Dbn1D operator+ (Dbn1D)
        Dbn1D operator- (Dbn1D)

#}}} Dbn1D


# Dbn2D {{{
cdef extern from "YODA/Dbn.h" namespace "YODA":
    cdef cppclass Dbn2D:
        Dbn2D ()
        Dbn2D (Dbn2D)

        void fill(double x, double y, double weight, double fraction) except +yodaerr
        void set(double numEntries, vector[double]& sumW, vector[double]& sumW2, vector[double]& sumWcross) except +yodaerr
        void reset() except +yodaerr
        void scaleW(double) except +yodaerr
        void scale(size_t, double)

        double numEntries() except +yodaerr
        double effNumEntries() except +yodaerr
        double sumW() except +yodaerr
        double sumW2() except +yodaerr
        double errW() except +yodaerr
        double relErrW() except +yodaerr
        double mean(size_t) except +yodaerr
        double variance(size_t) except +yodaerr
        double stdDev(size_t) except +yodaerr
        double stdErr(size_t) except +yodaerr
        double RMS(size_t) except +yodaerr


        void scaleX(double) except +yodaerr
        double sumWX() except +yodaerr
        double sumWX2() except +yodaerr
        double xMean() except +yodaerr
        double xVariance() except +yodaerr
        double xStdDev() except +yodaerr
        double xStdErr() except +yodaerr
        double xRMS() except +yodaerr

        void scaleY(double) except +yodaerr
        double sumWY() except +yodaerr
        double sumWY2() except +yodaerr
        double yMean() except +yodaerr
        double yVariance() except +yodaerr
        double yStdDev() except +yodaerr
        double yStdErr() except +yodaerr
        double yRMS() except +yodaerr

        double crossTerm(size_t, size_t) except +yodaerr
        void scaleXY(double, double) except +yodaerr

        Dbn2D operator + (Dbn2D)
        Dbn2D operator - (Dbn2D)
        # TODO: += and -= operators

#}}} Dbn2D


# Dbn3D {{{
cdef extern from "YODA/Dbn.h" namespace "YODA":
    cdef cppclass Dbn3D:
        Dbn3D ()
        Dbn3D (Dbn3D)

        void fill(double x, double y, double z, double weight, double fraction)
        void set(double numEntries, vector[double]& sumW, vector[double]& sumW2, vector[double]& sumWcross) except +yodaerr
        void reset() except +yodaerr
        void scaleW(double) except +yodaerr
        void scale(size_t, double) except +yodaerr

        double numEntries()
        double effNumEntries()
        double sumW()
        double sumW2()
        double errW() except +yodaerr
        double relErrW() except +yodaerr
        double mean(size_t) except +yodaerr
        double variance(size_t) except +yodaerr
        double stdDev(size_t) except +yodaerr
        double stdErr(size_t) except +yodaerr
        double RMS(size_t) except +yodaerr

        # void scaleXY(double, double)
        # void scaleYZ(double, double)
        # void scaleXZ(double, double)
        void scaleXYZ(double, double, double)


        void scaleX(double)
        double sumWX()
        double sumWX2()
        double xMean()
        double xVariance()
        double xStdDev()
        double xStdErr()
        double xRMS()

        void scaleY(double)
        double sumWY()
        double sumWY2()
        double yMean()
        double yVariance()
        double yStdDev()
        double yStdErr()
        double yRMS()

        void scaleZ(double)
        double sumWZ()
        double sumWZ2()
        double zMean()
        double zVariance()
        double zStdDev()
        double zStdErr()
        double zRMS()

        double crossTerm(size_t, size_t) except +yodaerr

        Dbn3D operator + (Dbn3D)
        Dbn3D operator - (Dbn3D)
        # TODO: += and -= operators

#}}} Dbn3D


# Estimate {{{
cdef extern from "YODA/Estimate.h" namespace "YODA":
    cdef cppclass Estimate:
        Estimate () except +yodaerr
        Estimate (double val, pair[double, double]& err, string& source) except +yodaerr
        Estimate (Estimate&) except +yodaerr

        void setVal(double val) except +yodaerr
        void setErr(pair[double, double]& err, string& source) except +yodaerr

        void reset() except +yodaerr

        void scale(double) except +yodaerr

        double val() except +yodaerr
        pair[double,double] errDownUp(string& source) except +yodaerr
        pair[double,double] err(string& source) except +yodaerr
        pair[double,double] errNegPos(string& source) except +yodaerr
        double errNeg(string& source) except +yodaerr
        double errPos(string& source) except +yodaerr
        double errDown(string& source) except +yodaerr
        double errUp(string& source) except +yodaerr
        double errAvg(string& source) except +yodaerr
        double errEnv(string& source) except +yodaerr

        pair[double,double] relErrDownUp(string& source) except +yodaerr
        pair[double,double] relErr(string& source) except +yodaerr
        double relErrDown(string& source) except +yodaerr
        double relErrUp(string& source) except +yodaerr
        double relErrAvg(string& source) except +yodaerr
        double relErrEnv(string& source) except +yodaerr

        double valMax(string& source) except +yodaerr
        double valMin(string& source) except +yodaerr

        pair[double,double] quadSum(string&) except +yodaerr
        double quadSumNeg(string&) except +yodaerr
        double quadSumPos(string&) except +yodaerr
        double quadSumAvg(string&) except +yodaerr
        double quadSumEnv(string&) except +yodaerr
        pair[double,double] totalErr(string&) except +yodaerr
        double totalErrNeg(string&) except +yodaerr
        double totalErrPos(string&) except +yodaerr
        double totalErrAvg(string&) except +yodaerr
        double totalErrEnv(string&) except +yodaerr
        pair[double,double] relTotalErr(string&) except +yodaerr
        double relTotalErrNeg(string&) except +yodaerr
        double relTotalErrPos(string&) except +yodaerr
        double relTotalErrAvg(string&) except +yodaerr
        double relTotalErrEnv(string&) except +yodaerr

        vector[string] sources() except +yodaerr
        size_t numErrs() except +yodaerr
        void rmSource(string&) except +yodaerr
        void renameSource(string&, string&) except +yodaerr
        void rmErrs() except +yodaerr

        void deserializeSources(vector[string]& data) except +yodaerr
        bool hasSource(string&) except +yodaerr

        Estimate operator+ (Estimate&)
        Estimate operator- (Estimate&)
        # TODO: += and -= operators

#}}} Estimate


# Point {{{

cdef extern from "YODA/Point.h" namespace "YODA":
    cdef cppclass Point:

        size_t dim() except +yodaerr

        double val(size_t i) except +yodaerr
        void setVal(size_t i, double val) except +yodaerr
        double max(size_t i) except +yodaerr
        double min(size_t i) except +yodaerr

        #double errMinus(size_t i) except +yodaerr
        #void setErrMinus(size_t i, double eminus) except +yodaerr
        #double errPlus(size_t i) except +yodaerr
        #void setErrPlus(size_t i, double eplus) except +yodaerr
        #double errAvg(size_t i) except +yodaerr

        pair[double,double] errs(size_t i) except +yodaerr
        void setErr(size_t i, double e) except +yodaerr
        # void setErrs(size_t i, double e) except +yodaerr
        # void setErrs(size_t i, double eminus, double eplus) except +yodaerr
        void setErrs(size_t i, pair[double,double]& e) except +yodaerr
        void setErrMinus(size_t i, double eminus) except +yodaerr
        void setErrPlus(size_t i, double eplus) except +yodaerr

        void scaleVal(size_t i, double scale) except +yodaerr
        void scaleErr(size_t i, double scale) except +yodaerr
        void scale(size_t i, double scale) except +yodaerr

#}}} Point


# Point1D {{{
cdef extern from "YODA/Point.h" namespace "YODA":
    cdef cppclass Point1D(Point):
        Point1D () except +yodaerr
        Point1D (Point1D p) except +yodaerr
        Point1D (vector[double]& vals, vector[double]& errdn, vector[double]& errup) except +yodaerr

        void clear() except +yodaerr

        double x() except +yodaerr
        double xMin() except +yodaerr
        double xMax() except +yodaerr
        pair[double,double] xErrs() except +yodaerr
        double xErrMinus() except +yodaerr
        double yErrMinus() except +yodaerr
        double xErrPlus() except +yodaerr
        double yErrPlus() except +yodaerr
        double xErrAvg() except +yodaerr

        void scaleX(double) except +yodaerr
        void scale(size_t i, double scale) except +yodaerr

        void setX(double x) except +yodaerr
        #void set(size_t i, double val, double e) except +yodaerr
        #void set(size_t i, double val, double eminus, double eplus) except +yodaerr
        #void set(size_t i, double val, pair[double,double]& e) except +yodaerr
        void setXErrs(pair[double, double]&) except +yodaerr
        void setXErrs(pair[double, double]&, string source) except +yodaerr

        bool operator == (Point1D) except +yodaerr
        bool operator != (Point1D b) except +yodaerr
        bool operator < (Point1D b) except +yodaerr
        bool operator <= (Point1D b) except +yodaerr
        bool operator > (Point1D b) except +yodaerr
        bool operator >= (Point1D b) except +yodaerr
# }}} Point1D


# Point2D {{{
cdef extern from "YODA/Point.h" namespace "YODA":
    cdef cppclass Point2D(Point):
        Point2D () except +yodaerr
        Point2D (Point2D p) except +yodaerr
        Point2D (vector[double]& vals, vector[double]& errdn, vector[double]& errup) except +yodaerr

        void setX(double x) except +yodaerr
        void setY(double y) except +yodaerr
        pair[double,double] xy() except +yodaerr
        void setXY(pair[double,double]&) except +yodaerr
        void setXErrs(pair[double, double]&) except +yodaerr
        void setYErrs(pair[double, double]&) except +yodaerr

        double x() except +yodaerr
        double y() except +yodaerr
        pair[double,double] xErrs() except +yodaerr
        pair[double,double] yErrs() except +yodaerr
        double xErrMinus() except +yodaerr
        double yErrMinus() except +yodaerr
        double xErrPlus() except +yodaerr
        double yErrPlus() except +yodaerr
        double xErrAvg() except +yodaerr
        double yErrAvg() except +yodaerr

        double xMin() except +yodaerr
        double xMax() except +yodaerr
        double yMin() except +yodaerr
        double yMax() except +yodaerr

        void scaleX(double) except +yodaerr
        void scaleY(double) except +yodaerr
        void scaleXY(double, double) except +yodaerr
        void scale(size_t i, double scale) except +yodaerr

        #void set(size_t i, double val, double e) except +yodaerr
        #void set(size_t i, double val, double eminus, double eplus) except +yodaerr
        #void set(size_t i, double val, pair[double,double]& e) except +yodaerr

        bool operator == (Point2D) except +yodaerr
        bool operator != (Point2D b) except +yodaerr
        bool operator < (Point2D b) except +yodaerr
        bool operator <= (Point2D b) except +yodaerr
        bool operator > (Point2D b) except +yodaerr
        bool operator >= (Point2D b) except +yodaerr
# }}} Point2D


# Point3D {{{
cdef extern from "YODA/Point.h" namespace "YODA":
    cdef cppclass Point3D(Point):
        Point3D () except +yodaerr
        Point3D (Point3D& p) except +yodaerr
        Point3D (vector[double]& vals, vector[double]& errdn, vector[double]& errup) except +yodaerr

        void setX(double x) except +yodaerr
        void setY(double y) except +yodaerr
        void setZ(double z) except +yodaerr
        void setXErrs(pair[double, double]&) except +yodaerr
        void setYErrs(pair[double, double]&) except +yodaerr
        void setZErrs(pair[double, double]&) except +yodaerr

        double x() except +yodaerr
        double y() except +yodaerr
        double z() except +yodaerr
        pair[double,double] xErrs() except +yodaerr
        pair[double,double] yErrs() except +yodaerr
        pair[double,double] zErrs() except +yodaerr
        double xErrMinus() except +yodaerr
        double yErrMinus() except +yodaerr
        double zErrMinus() except +yodaerr
        double xErrPlus() except +yodaerr
        double yErrPlus() except +yodaerr
        double zErrPlus() except +yodaerr
        double xErrAvg()
        double yErrAvg()
        double zErrAvg()

        double xMin() except +yodaerr
        double xMax() except +yodaerr
        double yMin() except +yodaerr
        double yMax() except +yodaerr
        double zMin() except +yodaerr
        double zMax() except +yodaerr

        void scaleX(double) except +yodaerr
        void scaleY(double) except +yodaerr
        void scaleZ(double) except +yodaerr
        void scaleXYZ(double, double, double) except +yodaerr
        void scale(size_t i, double scale) except +yodaerr

        #void set(size_t i, double val, double e) except +yodaerr
        #void set(size_t i, double val, double eminus, double eplus) except +yodaerr
        #void set(size_t i, double val, pair[double,double]& e) except +yodaerr

        bool operator == (Point3D b)
        bool operator != (Point3D b)
        bool operator < (Point3D b)
        bool operator <= (Point3D b)
        bool operator > (Point3D b)
        bool operator >= (Point3D b)
#}}} Point3D


# Point4D {{{
cdef extern from "YODA/Point.h" namespace "YODA":
    cdef cppclass Point4D(Point):
        Point4D () except +yodaerr
        Point4D (Point4D& p) except +yodaerr
        Point4D (vector[double]& vals, vector[double]& errdn, vector[double]& errup) except +yodaerr

        void scale(size_t i, double scale) except +yodaerr

        #void set(size_t i, double val, double e) except +yodaerr
        #void set(size_t i, double val, double eminus, double eplus) except +yodaerr
        #void set(size_t i, double val, pair[double,double]& e) except +yodaerr

        bool operator == (Point4D b)
        bool operator != (Point4D b)
        bool operator < (Point4D b)
        bool operator <= (Point4D b)
        bool operator > (Point4D b)
        bool operator >= (Point4D b)
#}}} Point4D



# XAxisMixin {{{
cdef extern from "YODA/Utils/BinnedUtils.h" namespace "YODA":
    cdef cppclass XAxisMixin[T]:
        size_t numBinsX(bool) except +yodaerr
        vector[T] xEdges(bool) except +yodaerr
        vector[T] xWidths(bool) except +yodaerr
        double xMin() except +yodaerr
        double xMax() except +yodaerr

        void rebinXBy(unsigned int n, size_t begin, size_t end) except +yodaerr
        void rebinXTo(vector[double]& edges) except +yodaerr

        double xMean(bool) except +yodaerr
        double xVariance(bool) except +yodaerr
        double xStdDev(bool) except +yodaerr
        double xStdErr(bool) except +yodaerr
        double xRMS(bool) except +yodaerr

#}}} XAxisMixin

# YAxisMixin {{{
cdef extern from "YODA/Utils/BinnedUtils.h" namespace "YODA":
    cdef cppclass YAxisMixin[T]:
        size_t numBinsY(bool) except +yodaerr
        vector[T] yEdges(bool) except +yodaerr
        vector[T] yWidths(bool) except +yodaerr
        double yMin() except +yodaerr
        double yMax() except +yodaerr

        void rebinYBy(unsigned int n, size_t begin, size_t end) except +yodaerr
        void rebinYTo(vector[double]& edges) except +yodaerr

        double yMean(bool) except +yodaerr
        double yVariance(bool) except +yodaerr
        double yStdDev(bool) except +yodaerr
        double yStdErr(bool) except +yodaerr
        double yRMS(bool) except +yodaerr

#}}} YAxisMixin

# ZAxisMixin {{{
cdef extern from "YODA/Utils/BinnedUtils.h" namespace "YODA":
    cdef cppclass ZAxisMixin[T]:
        size_t numBinsZ(bool) except +yodaerr
        vector[T] zEdges(bool) except +yodaerr
        vector[T] zWidths(bool) except +yodaerr
        double zMin() except +yodaerr
        double zMax() except +yodaerr

        void rebinZBy(unsigned int n, size_t begin, size_t end) except +yodaerr
        void rebinZTo(vector[double]& edges) except +yodaerr

        double zMean(bool) except +yodaerr
        double zVariance(bool) except +yodaerr
        double zStdDev(bool) except +yodaerr
        double zStdErr(bool) except +yodaerr
        double zRMS(bool) except +yodaerr

#}}} ZAxisMixin


# AnalysisObject {{{
cdef extern from "YODA/AnalysisObject.h" namespace "YODA":
    cdef cppclass AnalysisObject:
        # Constructors
        AnalysisObject(string type, string path, string title) except +yodaerr
        AnalysisObject(string type, string path, AnalysisObject ao, string title) except +yodaerr
        AnalysisObject()
        #AnalysisObject* newclone() except +yodaerr

        ## String used in automatic type determination
        string type() except +yodaerr

        ## Axis config where applicable
        string _config() except +yodaerr

        ## Data object fill- or plot-space dimension
        int dim() except +yodaerr

        ## Annotations
        vector[string] annotations() except +yodaerr
        bool hasAnnotation(string key) except +yodaerr
        string annotation(string key) except +yodaerr
        string annotation(string key, string default) except +yodaerr
        void setAnnotation(string, string) except +yodaerr
        void rmAnnotation(string name) except +yodaerr
        void clearAnnotations() except +yodaerr

        ## (De-)Serialization
        size_t lengthContent(bool) except +yodaerr
        vector[double] serializeContent(bool) except +yodaerr
        void deserializeContent(vector[double]& data) except +yodaerr
        size_t lengthMeta(bool, bool) except +yodaerr
        vector[string] serializeMeta(bool, bool) except +yodaerr
        void deserializeMeta(vector[string]& data, bool, bool) except +yodaerr

        ## Standard annotations
        string title() except +yodaerr
        void setTitle(string title) except +yodaerr
        string path() except +yodaerr
        void setPath(string title) except +yodaerr
        string name() except +yodaerr
# }}} AnalysisObject


# Fillable {{{
cdef extern from "YODA/Fillable.h" namespace "YODA":
    cdef cppclass Fillable:

        size_t numBins(bool, bool) except +yodaerr
        size_t fillDim() except +yodaerr
        size_t binDim() except +yodaerr

        double numEntries(bool) except +yodaerr
        double effNumEntries(bool) except +yodaerr
        double sumW(bool) except +yodaerr
        double sumW2(bool) except +yodaerr
        double sumWA(size_t, bool) except +yodaerr
        double sumWA2(size_t, bool) except +yodaerr
        double integral(bool) except +yodaerr
        double integralError(bool) except +yodaerr
        double dVol(bool) except +yodaerr
        double density(bool) except +yodaerr
        double densityError(bool) except +yodaerr
        double densitySum(bool) except +yodaerr
        double maxDensity(bool) except +yodaerr

        void normalize(double normto, bool includeoverflows) except +yodaerr
        void scaleW(double scalefactor) except +yodaerr

#}}} Fillable

# Scatter {{{
cdef extern from "YODA/Scatter.h" namespace "YODA":
    cdef cppclass Scatter:

        size_t numPoints() except +yodaerr

        vector[double] vals(size_t) except +yodaerr
        vector[double] mins(size_t) except +yodaerr
        vector[double] maxs(size_t) except +yodaerr
        vector[double] errAvgs(size_t) except +yodaerr
        vector[pair[double,double]] errs(size_t) except +yodaerr

        void scale(size_t i, double factor) except +yodaerr
        void scaleVal(size_t i, double factor) except +yodaerr
        void scaleErr(size_t i, double factor) except +yodaerr

#}}} Scatter


cdef extern from "YODA/Utils/sortedvector.h" namespace "YODA::Utils":
    cdef cppclass sortedvector[T](vector):
        sortedvector(vector[T]) except +yodaerr
        void insert(T) except +yodaerr


# Scatter1D {{{
cdef extern from "YODA/Scatter.h" namespace "YODA":
    cdef cppclass Scatter1D(AnalysisObject,Scatter):
        Scatter1D() except +yodaerr
        Scatter1D(string path, string title) except +yodaerr
        Scatter1D(Scatter1D p, string path)

        Scatter1D clone() except +yodaerr
        Scatter1D* newclone() except +yodaerr

        void reset() except +yodaerr

        vector[Point1D]& points() except +yodaerr
        Point1D& point(size_t index) except +yodaerr

        void addPoint(Point1D&) except +yodaerr
        #void addPoints(sortedvector[Point1D]&) except +yodaerr

        void rmPoint(size_t) except +yodaerr
        void rmPoints(vector[size_t]) except +yodaerr

        void combineWith(Scatter1D&) except +yodaerr
        void combineWith(vector[Scatter1D]&) except +yodaerr

        vector[pair[double,double]] edges(size_t) except +yodaerr

        vector[double] xVals() except +yodaerr
        vector[double] xMins() except +yodaerr
        vector[double] xMaxs() except +yodaerr
        double xMin() except +yodaerr
        double xMax() except +yodaerr
        vector[pair[double,double]] xErrs() except +yodaerr
        vector[double] xErrAvgs() except +yodaerr

#}}} Scatter1D


# Scatter2D {{{
cdef extern from "YODA/Scatter.h" namespace "YODA":
    cdef cppclass Scatter2D(AnalysisObject,Scatter):
        Scatter2D() except +yodaerr
        Scatter2D(string path, string title) except +yodaerr
        Scatter2D(Scatter2D p, string path)

        Scatter2D clone() except +yodaerr
        Scatter2D* newclone() except +yodaerr

        void reset() except +yodaerr

        vector[Point2D]& points() except +yodaerr
        Point2D& point(size_t index) except +yodaerr

        void addPoint(Point2D&) except +yodaerr
        #void addPoints(sortedvector[Point2D]&) except +yodaerr

        void rmPoint(size_t) except +yodaerr
        void rmPoints(vector[size_t]) except +yodaerr

        void combineWith(Scatter2D&) except +yodaerr
        void combineWith(vector[Scatter2D]&) except +yodaerr

        #void scaleX(double) except +yodaerr
        #void scaleY(double) except +yodaerr
        #void scaleXY(double, double) except +yodaerr
        vector[pair[double,double]] edges(size_t) except +yodaerr

        vector[double] xVals() except +yodaerr
        vector[double] xMins() except +yodaerr
        vector[double] xMaxs() except +yodaerr
        vector[double] yVals() except +yodaerr
        vector[double] yMins() except +yodaerr
        vector[double] yMaxs() except +yodaerr
        double xMin() except +yodaerr
        double xMax() except +yodaerr
        double yMin() except +yodaerr
        double yMax() except +yodaerr
        vector[pair[double,double]] xErrs() except +yodaerr
        vector[pair[double,double]] yErrs() except +yodaerr
        vector[double] xErrAvgs() except +yodaerr
        vector[double] yErrAvgs() except +yodaerr

    #void Scatter2D_transformX "YODA::transformX" (Scatter2D&, dbl_dbl_fptr)
    #void Scatter2D_transformY "YODA::transformY" (Scatter2D&, dbl_dbl_fptr)

#}}} Scatter2D


# Scatter3D {{{
cdef extern from "YODA/Scatter.h" namespace "YODA":
    cdef cppclass Scatter3D(AnalysisObject,Scatter):
        Scatter3D() except +yodaerr
        Scatter3D(string path, string title) except +yodaerr
        Scatter3D(Scatter3D p, string path)

        Scatter3D clone() except +yodaerr
        Scatter3D* newclone() except +yodaerr

        void reset() except +yodaerr

        sortedvector[Point3D]& points() except +yodaerr
        Point3D& point(size_t index) except +yodaerr

        void addPoint(Point3D&) except +yodaerr
        #void addPoints(sortedvector[Point3D]&) except +yodaerr

        void rmPoint(size_t) except +yodaerr
        void rmPoints(vector[size_t]) except +yodaerr

        void combineWith(Scatter3D&) except +yodaerr
        void combineWith(vector[Scatter3D]&) except +yodaerr

        #void scaleX(double) except +yodaerr
        #void scaleY(double) except +yodaerr
        #void scaleZ(double) except +yodaerr
        #void scaleXYZ(double, double, double) except +yodaerr
        vector[pair[double,double]] edges(size_t) except +yodaerr

        vector[double] xVals() except +yodaerr
        vector[double] xMins() except +yodaerr
        vector[double] xMaxs() except +yodaerr
        vector[double] yVals() except +yodaerr
        vector[double] yMins() except +yodaerr
        vector[double] yMaxs() except +yodaerr
        vector[double] zVals() except +yodaerr
        vector[double] zMins() except +yodaerr
        vector[double] zMaxs() except +yodaerr
        double xMin() except +yodaerr
        double xMax() except +yodaerr
        double yMin() except +yodaerr
        double yMax() except +yodaerr
        double zMin() except +yodaerr
        double zMax() except +yodaerr
        vector[pair[double,double]] xErrs() except +yodaerr
        vector[pair[double,double]] yErrs() except +yodaerr
        vector[pair[double,double]] zErrs() except +yodaerr
        vector[double] xErrAvgs() except +yodaerr
        vector[double] yErrAvgs() except +yodaerr
        vector[double] zErrAvgs() except +yodaerr

    #void Scatter3D_transformX "YODA::transformX" (Scatter3D&, dbl_dbl_fptr)
    #void Scatter3D_transformY "YODA::transformY" (Scatter3D&, dbl_dbl_fptr)
    #void Scatter3D_transformZ "YODA::transformZ" (Scatter3D&, dbl_dbl_fptr)

#}}} Scatter3D


# Scatter4D {{{
cdef extern from "YODA/Scatter.h" namespace "YODA":
    cdef cppclass Scatter4D(AnalysisObject,Scatter):
        Scatter4D() except +yodaerr
        Scatter4D(string path, string title) except +yodaerr
        Scatter4D(Scatter4D p, string path)

        Scatter4D clone() except +yodaerr
        Scatter4D* newclone() except +yodaerr

        void reset() except +yodaerr

        sortedvector[Point4D]& points() except +yodaerr
        Point4D& point(size_t index) except +yodaerr

        void addPoint(Point4D&) except +yodaerr
        #void addPoints(sortedvector[Point3D]&) except +yodaerr

        void rmPoint(size_t) except +yodaerr
        void rmPoints(vector[size_t]) except +yodaerr

        void combineWith(Scatter4D&) except +yodaerr
        void combineWith(vector[Scatter4D]&) except +yodaerr

        #void scaleX(double) except +yodaerr
        #void scaleY(double) except +yodaerr
        #void scaleZ(double) except +yodaerr
        #void scaleXYZ(double, double, double) except +yodaerr
        vector[pair[double,double]] edges(size_t) except +yodaerr

#}}} Scatter4D


# Estimate0D {{{
cdef extern from "YODA/Estimate0D.h" namespace "YODA":
    cdef cppclass Estimate0D(AnalysisObject,Estimate):
        Estimate0D(string& path, string& title) except +yodaerr
        Estimate0D (double val, pair[double, double]& err, string& source, string& path, string& title) except +yodaerr
        Estimate0D (Estimate0D&) except +yodaerr

        Estimate0D clone() except +yodaerr
        Estimate0D* newclone() except +yodaerr

        Scatter1D mkScatter(string&, string&) except +yodaerr

#}}} Estimate0D

cdef extern from "merge.hh":
    void Estimate0D_iadd_Estimate0D "cython_iadd" (Estimate0D*, Estimate0D*)
    void Estimate0D_isub_Estimate0D "cython_isub" (Estimate0D*, Estimate0D*)
    Estimate0D* Estimate0D_add_Estimate0D "cython_add" (Estimate0D*, Estimate0D*)
    Estimate0D* Estimate0D_sub_Estimate0D "cython_sub" (Estimate0D*, Estimate0D*)
    Estimate0D* Estimate0D_div_Estimate0D "cython_div" (Estimate0D*, Estimate0D*)
    Estimate0D* Estimate0D_eff_Estimate0D "cython_eff" (Estimate0D*, Estimate0D*)


# Counter {{{
cdef extern from "YODA/Counter.h" namespace "YODA":
    cdef cppclass Counter(AnalysisObject,Fillable):
        Counter(string& path, string& title) except +yodaerr

        Counter(Counter& c, string path)

        Counter clone() except +yodaerr
        Counter* newclone() except +yodaerr

        void reset() except +yodaerr

        int fill(double weight, double fraction) except +yodaerr
        void set(double numEntries, double sumW, double sumW2) except +yodaerr

        unsigned long numEntries() except +yodaerr
        double effNumEntries() except +yodaerr

        double sumW() except +yodaerr
        double sumW2() except +yodaerr

        double val() except +yodaerr
        double err() except +yodaerr
        double relErr() except +yodaerr

        Estimate0D mkEstimate(string&) except +yodaerr
        Scatter1D mkScatter(string&) except +yodaerr

        # operator += (Counter)
        # operator -= (Counter)

#}}} Counter

cdef extern from "merge.hh":
    void Counter_iadd_Counter "cython_iadd" (Counter*, Counter*)
    void Counter_isub_Counter "cython_isub" (Counter*, Counter*)
    Counter* Counter_add_Counter "cython_add" (Counter*, Counter*)
    Counter* Counter_sub_Counter "cython_sub" (Counter*, Counter*)
    Estimate0D* Counter_div_Counter "cython_div" (Counter*, Counter*)
    Estimate0D* Counter_eff_Counter "cython_eff" (Counter*, Counter*)
    Estimate0D* Counter_est "cython_est" (Counter*, string&, string&)


# Axis {{{
cdef extern from "YODA/BinnedAxis.h" namespace "YODA":
    cdef cppclass Axis[T]:
        Axis() except +yodaerr
        Axis(vector[T]& edges) except +yodaerr

        size_t numBins(bool) except +yodaerr
        size_t index(T& x) except +yodaerr
        string type() except +yodaerr

        T width(size_t) except +yodaerr
        T max(size_t) except +yodaerr
        T min(size_t) except +yodaerr
        T mid(size_t) except +yodaerr
        T edge(size_t) except +yodaerr

#}}} Axis

# BinnedHisto1D {{{
cdef extern from "YODA/Histo.h" namespace "YODA":
    cdef cppclass BinnedHisto1D[A1](AnalysisObject,Fillable,XAxisMixin[A1]):
        BinnedHisto1D() except +yodaerr

        BinnedHisto1D(vector[A1]& binedges,
                      string& path,
                      string& title) except +yodaerr

        BinnedHisto1D(BinnedHisto1D[A1] &h) except +yodaerr

        BinnedHisto1D[A1] clone() except +yodaerr
        BinnedHisto1D[A1]* newclone() except +yodaerr


        void reset() except +yodaerr

        int fill(A1 x, double weight, double fraction) except +yodaerr

        #void mergeBins(size_t, size_t) except +yodaerr

        vector[Dbn1D]& bins()
        Dbn1D& bin(size_t ix) except +yodaerr
        Dbn1D& binAt(A1 x) except +yodaerr
        size_t indexAt(A1 x) except +yodaerr
        void set(size_t, Dbn1D&) except +yodaerr
        bool isMasked(size_t) except +yodaerr
        bool isVisible(size_t) except +yodaerr

        # Whole histo data
        #double integralTo(int, bool) except +yodaerr
        #double integralRange(int, int) except +yodaerr

        vector[size_t] _global2local(size_t) except +yodaerr
        size_t _local2global(vector[size_t]&) except +yodaerr

        BinnedEstimate1D[A1] mkEstimate(string&, string&, bool, double) except +yodaerr
        BinnedEstimate1D[A1] mkBinnedEffNumEntries(string&, string&, bool, bool, double) except +yodaerr
        Scatter2D mkScatter(string&, bool, bool, bool, bool, double) except +yodaerr

        void maskBin(size_t index, bool status) except +yodaerr
        void maskSlice(size_t, size_t, bool) except +yodaerr
        vector[size_t] maskedBins() except +yodaerr

        operator == (BinnedHisto1D[A1])
        operator != (BinnedHisto1D[A1])

#}}} BinnedHisto1D


# BinnedHisto2D {{{
cdef extern from "YODA/Histo.h" namespace "YODA":
    cdef cppclass BinnedHisto2D[A1,A2](AnalysisObject,Fillable,XAxisMixin[A1],YAxisMixin[A2]):
        BinnedHisto2D() except +yodaerr

        BinnedHisto2D(vector[A1]& xedges, vector[A2]& yedges,
                      string path, string title) except +yodaerr

        BinnedHisto2D(BinnedHisto2D[A1,A2]& h)

        BinnedHisto2D[A1,A2] clone() except +yodaerr
        BinnedHisto2D[A1,A2]* newclone() except +yodaerr

        void reset() except +yodaerr

        int fill(A1 x, A2 y, double weight, double fraction) except +yodaerr

        vector[Dbn2D]& bins() except +yodaerr
        Dbn2D& bin(size_t ix) except +yodaerr
        Dbn2D& binAt(A1 x, A2 y) except +yodaerr
        size_t indexAt(A1 x, A2 y) except +yodaerr
        void set(size_t, Dbn2D&) except +yodaerr
        bool isMasked(size_t) except +yodaerr
        bool isVisible(size_t) except +yodaerr

        vector[size_t] _global2local(size_t) except +yodaerr
        size_t _local2global(vector[size_t]&) except +yodaerr

        BinnedEstimate2D[A1,A2] mkEstimate(string&, string&, bool, double) except +yodaerr
        BinnedEstimate2D[A1,A2] mkBinnedEffNumEntries(string&, string&, bool, bool, double) except +yodaerr
        Scatter3D mkScatter(string&, bool, bool, bool, bool, double) except +yodaerr

        void maskBin(size_t index, bool status) except +yodaerr
        void maskSlice(size_t, size_t, bool) except +yodaerr
        vector[size_t] maskedBins() except +yodaerr

        operator == (BinnedHisto2D[A1,A2])
        operator != (BinnedHisto2D[A1,A2])

# BinnedHisto2D }}}


# BinnedHisto3D {{{
cdef extern from "YODA/Histo.h" namespace "YODA":
    cdef cppclass BinnedHisto3D[A1,A2,A3](AnalysisObject,Fillable,XAxisMixin[A1],YAxisMixin[A2],ZAxisMixin[A3]):
        BinnedHisto3D() except +yodaerr

        BinnedHisto3D(vector[A1]& xedges, vector[A2]& yedges, vector[A3]& zedges,
                      string path, string title) except +yodaerr

        BinnedHisto3D(BinnedHisto3D[A1,A2,A3]& h)

        BinnedHisto3D[A1,A2,A3] clone() except +yodaerr
        BinnedHisto3D[A1,A2,A3]* newclone() except +yodaerr

        void reset() except +yodaerr

        int fill(A1 x, A2 y, A3 z, double weight, double fraction) except +yodaerr

        # void mergeBins(size_t, size_t) except +yodaerr

        vector[Dbn3D]& bins() except +yodaerr
        Dbn3D& bin(size_t ix) except +yodaerr
        Dbn3D& binAt(A1 x, A2 y, A3 z) except +yodaerr
        size_t indexAt(A1 x, A2 y, A3 z) except +yodaerr
        void set(size_t, Dbn3D&) except +yodaerr
        bool isMasked(size_t) except +yodaerr
        bool isVisible(size_t) except +yodaerr

        vector[size_t] _global2local(size_t) except +yodaerr
        size_t _local2global(vector[size_t]&) except +yodaerr

        BinnedEstimate3D[A1,A2,A3] mkEstimate(string&, string&, bool, double) except +yodaerr
        BinnedEstimate3D[A1,A2,A3] mkBinnedEffNumEntries(string&, string&, bool, bool, double) except +yodaerr
        Scatter4D mkScatter(string&, bool, bool, bool, bool, double) except +yodaerr

        void maskBin(size_t index, bool status) except +yodaerr
        void maskSlice(size_t, size_t, bool) except +yodaerr
        vector[size_t] maskedBins() except +yodaerr

        operator == (BinnedHisto3D[A1,A2,A3])
        operator != (BinnedHisto3D[A1,A2,A3])

# BinnedHisto3D }}}


# BinnedProfile1D {{{
cdef extern from "YODA/Profile.h" namespace "YODA":
    cdef cppclass BinnedProfile1D[A1](AnalysisObject,Fillable,XAxisMixin[A1]):
        BinnedProfile1D() except +yodaerr

        BinnedProfile1D(vector[A1]& edges, string path, string title) except +yodaerr

        BinnedProfile1D(BinnedProfile1D[A1]& p) except +yodaerr

        BinnedProfile1D[A1] clone() except +yodaerr
        BinnedProfile1D[A1]* newclone() except +yodaerr

        void reset() except +yodaerr

        int fill(A1 x, double y, double weight, double fraction) except +yodaerr

        #void mergeBins(size_t, size_t) except +yodaerr

        vector[Dbn2D]& bins() except +yodaerr
        Dbn2D& bin(size_t ix) except +yodaerr
        Dbn2D& binAt(A1 x) except +yodaerr
        size_t indexAt(A1 x) except +yodaerr
        void set(size_t, Dbn2D&) except +yodaerr
        bool isMasked(size_t) except +yodaerr
        bool isVisible(size_t) except +yodaerr

        vector[size_t] _global2local(size_t) except +yodaerr
        size_t _local2global(vector[size_t]&) except +yodaerr

        BinnedEstimate1D[A1] mkEstimate(string&, string&, bool, double) except +yodaerr
        BinnedEstimate1D[A1] mkBinnedEffNumEntries(string&, string&, bool, bool, double) except +yodaerr
        Scatter2D mkScatter(string&, bool, bool, bool, bool, double) except +yodaerr
        BinnedHisto1D[A1] mkHisto(string&) except +yodaerr

        void maskBin(size_t index, bool status) except +yodaerr
        void maskSlice(size_t, size_t, bool) except +yodaerr
        vector[size_t] maskedBins() except +yodaerr

        operator == (BinnedProfile1D[A1])
        operator != (BinnedProfile1D[A1])

#}}} BinnedProfile1D



# BinnedProfile2D {{{
cdef extern from "YODA/Profile.h" namespace "YODA":
    cdef cppclass BinnedProfile2D[A1,A2](AnalysisObject,Fillable,XAxisMixin[A1],YAxisMixin[A2]):
        BinnedProfile2D() except +yodaerr

        BinnedProfile2D(vector[A1]& xedges, vector[A2]& yedges,
                        string path, string title) except +yodaerr

        BinnedProfile2D(BinnedProfile2D[A1,A2]& p) except +yodaerr

        BinnedProfile2D clone() except +yodaerr
        BinnedProfile2D* newclone() except +yodaerr

        # TODO: add missing functions and enable refs + exceptions when Cython allows

        void reset() except +yodaerr

        int fill(A1 x, A2 y, double z, double weight, double fraction) except +yodaerr

        # void mergeBins(size_t, size_t) except +yodaerr

        vector[Dbn3D]& bins() except +yodaerr
        Dbn3D& bin(size_t ix) except +yodaerr
        Dbn3D& binAt(A1 x, A2 y) except +yodaerr
        size_t indexAt(A1 x, A2 y) except +yodaerr
        void set(size_t, Dbn3D&) except +yodaerr
        bool isMasked(size_t) except +yodaerr
        bool isVisible(size_t) except +yodaerr

        vector[size_t] _global2local(size_t) except +yodaerr
        size_t _local2global(vector[size_t]&) except +yodaerr

        BinnedEstimate2D[A1,A2] mkEstimate(string&, string&, bool, double) except +yodaerr
        BinnedEstimate2D[A1,A2] mkBinnedEffNumEntries(string&, string&, bool, bool, double) except +yodaerr
        Scatter3D mkScatter(string&, bool, bool, bool, bool, double) except +yodaerr
        BinnedHisto2D[A1,A2] mkHisto(string&) except +yodaerr

        void maskBin(size_t index, bool status) except +yodaerr
        void maskSlice(size_t, size_t, bool) except +yodaerr
        vector[size_t] maskedBins() except +yodaerr

        operator == (BinnedProfile2D[A1,A2])
        operator != (BinnedProfile2D[A1,A2])

#}}} BinnedProfile2D


# BinnedEstimate1D {{{
cdef extern from "YODA/BinnedEstimate.h" namespace "YODA":
    cdef cppclass BinnedEstimate1D[A1](AnalysisObject, XAxisMixin[A1]):
        BinnedEstimate1D() except +yodaerr
        BinnedEstimate1D(vector[A1]& edges, string path, string title) except +yodaerr
        BinnedEstimate1D(BinnedEstimate1D[A1]& p) except +yodaerr

        BinnedEstimate1D[A1] clone() except +yodaerr
        BinnedEstimate1D[A1]* newclone() except +yodaerr

        void reset() except +yodaerr

        size_t binDim() except +yodaerr
        size_t numBins(bool, bool) except +yodaerr

        void scale(double factor) except +yodaerr

        vector[Estimate]& bins() except +yodaerr
        Estimate& bin(size_t index) except +yodaerr
        Estimate& binAt(A1 x) except +yodaerr
        size_t indexAt(A1 x) except +yodaerr
        void set(size_t, Estimate&) except +yodaerr
        bool isMasked(size_t) except +yodaerr
        bool isVisible(size_t) except +yodaerr

        vector[size_t] _global2local(size_t) except +yodaerr
        size_t _local2global(vector[size_t]&) except +yodaerr

        vector[string] sources() except +yodaerr
        double areaUnderCurve(bool,bool,bool)

        vector[vector[double]] covarianceMatrix(bool,bool,bool,string) except +yodaerr

        Scatter2D mkScatter(string&, string&, bool, bool) except +yodaerr

        void maskBin(size_t index, bool status) except +yodaerr
        void maskSlice(size_t, size_t, bool) except +yodaerr
        vector[size_t] maskedBins() except +yodaerr

        operator == (BinnedEstimate1D[A1])
        operator != (BinnedEstimate1D[A1])

#}}} BinnedEstimate1D


cdef extern from "YODA/BinnedEstimate.h" namespace "YODA":
    cdef cppclass BinnedEstimate2D[A1,A2](AnalysisObject, XAxisMixin[A1], YAxisMixin[A2]):
        BinnedEstimate2D() except +yodaerr
        BinnedEstimate2D(vector[A1]& xedges, vector[A2]& yedges, string path, string title) except +yodaerr
        BinnedEstimate2D(BinnedEstimate2D[A1,A2]& p) except +yodaerr

        BinnedEstimate2D[A1,A2] clone() except +yodaerr
        BinnedEstimate2D[A1,A2]* newclone() except +yodaerr

        void reset() except +yodaerr

        size_t binDim() except +yodaerr
        size_t numBins(bool, bool) except +yodaerr

        void scale(double factor) except +yodaerr

        # TODO: have to ignore exception handling on ref-returning methods until Cython bug is fixed
        vector[Estimate]& bins() except +yodaerr
        Estimate& bin(size_t index) except +yodaerr
        Estimate& binAt(A1 x, A2 y) except +yodaerr
        size_t indexAt(A1 x, A2 y) except +yodaerr
        void set(size_t, Estimate&) except +yodaerr
        bool isMasked(size_t) except +yodaerr
        bool isVisible(size_t) except +yodaerr

        vector[size_t] _global2local(size_t) except +yodaerr
        size_t _local2global(vector[size_t]&) except +yodaerr

        vector[string] sources() except +yodaerr

        double areaUnderCurve(bool,bool,bool)

        vector[vector[double]] covarianceMatrix(bool,bool,bool,string) except +yodaerr

        Scatter3D mkScatter(string&, string&, bool, bool) except +yodaerr

        void maskBin(size_t index, bool status) except +yodaerr
        void maskSlice(size_t, size_t, bool) except +yodaerr
        vector[size_t] maskedBins() except +yodaerr

        operator == (BinnedEstimate2D[A1,A2])
        operator != (BinnedEstimate2D[A1,A2])

#}}} BinnedEstimate2D


# BinnedEstimate3D {{{
cdef extern from "YODA/BinnedEstimate.h" namespace "YODA":
    cdef cppclass BinnedEstimate3D[A1,A2,A3](AnalysisObject, XAxisMixin[A1], YAxisMixin[A2], ZAxisMixin[A3]):
        BinnedEstimate3D() except +yodaerr
        BinnedEstimate3D(vector[A1]& xedges, vector[A2]& yedges, vector[A3]& zedges, string path, string title) except +yodaerr
        BinnedEstimate3D(BinnedEstimate3D[A1,A2,A3]& p) except +yodaerr

        BinnedEstimate3D[A1,A2,A3] clone() except +yodaerr
        BinnedEstimate3D[A1,A2,A3]* newclone() except +yodaerr

        void reset() except +yodaerr

        size_t binDim() except +yodaerr
        size_t numBins(bool, bool) except +yodaerr

        void scale(double factor) except +yodaerr

        # TODO: have to ignore exception handling on ref-returning methods until Cython bug is fixed
        vector[Estimate]& bins() except +yodaerr
        Estimate& bin(size_t index) except +yodaerr
        Estimate& binAt(A1 x, A2 y, A3 z) except +yodaerr
        size_t indexAt(A1 x, A2 y, A3 z) except +yodaerr
        void set(size_t, Estimate&) except +yodaerr
        bool isMasked(size_t) except +yodaerr
        bool isVisible(size_t) except +yodaerr

        vector[size_t] _global2local(size_t) except +yodaerr
        size_t _local2global(vector[size_t]&) except +yodaerr

        vector[string] sources() except +yodaerr

        double areaUnderCurve(bool,bool,bool)

        vector[vector[double]] covarianceMatrix(bool,bool,bool,string) except +yodaerr

        Scatter4D mkScatter(string&, string&, bool, bool) except +yodaerr

        void maskBin(size_t index, bool status) except +yodaerr
        void maskSlice(size_t, size_t, bool) except +yodaerr
        vector[size_t] maskedBins() except +yodaerr

        operator == (BinnedEstimate3D[A1,A2,A3])
        operator != (BinnedEstimate3D[A1,A2,A3])

#}}} BinnedEstimate3D


# Streams {{{

cdef extern from "<iostream>" namespace "std":
    cdef cppclass istream:
        istringstream()
        string& str(string&)

cdef extern from "<sstream>" namespace "std":
    cdef cppclass istringstream:
        istringstream()
        string& str(string&)
    cdef cppclass ostringstream:
        ostringstream()
        string& str()


cdef extern from "YODA/IO.h" namespace "YODA":
    void IO_read_from_file "YODA::read" (string&, vector[AnalysisObject*]&, string&, string&) except +yodaerr
    void IO_read_from_stream "YODA::read" (istream&, vector[AnalysisObject*]& aos, string&, string&, string&) except +yodaerr
    void IO_read_from_stringstream "YODA::read" (istringstream&, vector[AnalysisObject*]& aos, string&, string&, string&) except +yodaerr

cdef extern from "YODA/Reader.h" namespace "YODA":
    cdef cppclass Reader:
        void read(istringstream&, vector[AnalysisObject*]&, string&, string&) except +yodaerr
        void read_from_file "YODA::Reader::read" (string&, vector[AnalysisObject*]&, string&, string&) except +yodaerr
H5_READER
cdef extern from "YODA/ReaderYODA.h" namespace "YODA":
    Reader& ReaderYODA_create "YODA::ReaderYODA::create" ()

cdef extern from "YODA/ReaderFLAT.h" namespace "YODA":
    Reader& ReaderFLAT_create "YODA::ReaderFLAT::create" ()

cdef extern from "YODA/Reader.h" namespace "YODA":
    Reader& Reader_create "YODA::mkReader" (string& filename)


cdef extern from "YODA/IO.h" namespace "YODA":
    void IO_write_to_file "YODA::write" (string&, vector[AnalysisObject*]&, int) except +yodaerr

cdef extern from "YODA/Writer.h" namespace "YODA":
    cdef cppclass Writer:
        void write(ostringstream&, vector[AnalysisObject*]&) except +yodaerr
        void write_to_file "YODA::Writer::write" (string&, vector[AnalysisObject*]&) except +yodaerr
        void setPrecision(int precision)
        void useCompression(bool compress)
    Writer& Writer_create "YODA::mkWriter" (string& filename)
H5_WRITER
cdef extern from "YODA/WriterYODA.h" namespace "YODA":
    Writer& WriterYODA_create "YODA::WriterYODA::create" ()

cdef extern from "YODA/WriterYODA1.h" namespace "YODA":
    Writer& WriterYODA1_create "YODA::WriterYODA1::create" ()

cdef extern from "YODA/WriterFLAT.h" namespace "YODA":
    Writer& WriterFLAT_create "YODA::WriterFLAT::create" ()

# Streams }}}


